<?xml version="1.0" encoding="UTF-8" standalone="no"?>
<!DOCTYPE svg PUBLIC "-//W3C//DTD SVG 1.1//EN" "http://www.w3.org/Graphics/SVG/1.1/DTD/svg11.dtd">
<svg width="100%" height="100%" viewBox="0 0 3035 527" version="1.1" xmlns="http://www.w3.org/2000/svg" xmlns:xlink="http://www.w3.org/1999/xlink" xml:space="preserve" xmlns:serif="http://www.serif.com/" style="fill-rule:evenodd;clip-rule:evenodd;stroke-linejoin:round;stroke-miterlimit:2;">
    <g transform="matrix(-4.16667,0,0,4.16667,3184.66,-767.471)">
        <rect x="35.681" y="184.193" width="728.637" height="126.556" style="fill:none;"/>
    </g>
    <g transform="matrix(4.16667,0,0,4.16667,807.807,178.532)">
        <path d="M0,40.828L30.607,40.828L30.607,36.747L4.081,36.747L4.081,20.423L24.486,20.423L24.486,16.342L4.081,16.342L4.081,4.083L30.607,4.083L30.607,0L0,0L0,40.828Z" style="fill-rule:nonzero;"/>
    </g>
    <g transform="matrix(4.16667,0,0,4.16667,1241.41,178.532)">
        <path d="M0,40.828L30.607,40.828L30.607,36.747L4.081,36.747L4.081,20.423L26.526,20.413L26.526,16.332L4.081,16.342L4.081,4.083L30.607,4.083L30.607,0L0,0L0,40.828Z" style="fill-rule:nonzero;"/>
    </g>
    <g transform="matrix(4.16667,0,0,4.16667,1802.55,178.532)">
        <path d="M0,40.828L30.607,40.828L30.607,36.747L4.081,36.747L4.081,20.423L24.486,20.423L24.486,16.342L4.081,16.342L4.081,4.083L30.607,4.083L30.607,0L0,0L0,40.828Z" style="fill-rule:nonzero;"/>
    </g>
    <g transform="matrix(4.16667,0,0,4.16667,1045.87,348.648)">
        <path d="M0,-40.828L-4.081,-40.828L-4.082,0L26.526,0L26.526,-4.081L0,-4.081L0,-40.828Z" style="fill-rule:nonzero;"/>
    </g>
    <g transform="matrix(4.16667,0,0,4.16667,2291.19,331.64)">
        <path d="M0,-32.662L16.323,-32.662L16.323,4.083L20.404,4.083L20.404,-32.662L36.701,-32.662L36.701,-36.745L0,-36.745L0,-32.662Z" style="fill-rule:nonzero;"/>
    </g>
    <g transform="matrix(4.16667,0,0,4.16667,1581.5,234.193)">
        <path d="M0,12.069L-26.526,-15.4L-26.526,27.469L-22.445,27.469L-22.445,-5.299L0,17.944L22.444,-5.298L22.444,27.469L26.525,27.469L26.525,-15.4L0,12.069Z" style="fill-rule:nonzero;"/>
    </g>
    <g transform="matrix(4.16667,0,0,4.16667,2172.16,348.567)">
        <path d="M0,-40.79L0,-8.041L-33.613,-42.85L-33.613,0.02L-29.533,0.02L-29.533,-32.748L4.081,2.06L4.081,-40.79L0,-40.79Z" style="fill-rule:nonzero;"/>
    </g>
    <g transform="matrix(4.16667,0,0,4.16667,2552.25,221.119)">
        <path d="M0,18.364L8.559,-1.799L17.117,18.364L0,18.364ZM22.313,30.607L26.747,30.607L8.559,-12.243L-9.63,30.607L-5.197,30.607L-1.732,22.445L18.85,22.445L22.313,30.607Z" style="fill-rule:nonzero;"/>
    </g>
    <g transform="matrix(4.16667,0,0,4.16667,2782.73,246.577)">
        <path d="M0,8.166L0,-12.249L12.242,-12.231C17.875,-12.231 22.441,-7.665 22.441,-2.032C22.441,3.601 17.875,8.167 12.242,8.167L0,8.166ZM28.118,24.497L15.834,11.775C21.98,10.182 26.526,4.616 26.526,-2.029C26.526,-9.918 20.131,-16.313 12.242,-16.313L-4.081,-16.331L-4.081,24.497L0,24.497L0,12.249L10.617,12.249L22.445,24.497L28.118,24.497Z" style="fill-rule:nonzero;"/>
    </g>
    <g transform="matrix(4.16667,0,0,4.16667,510.208,391.217)">
        <path d="M0,-61.229L-89.785,-61.229L-89.785,0L-42.854,0L-42.854,-6.122L-83.664,-6.122L-83.664,-28.575L-48.976,-28.592L-48.976,-34.713L-83.664,-34.697L-83.664,-55.107L0,-55.107C13.527,-55.107 24.493,-44.141 24.493,-30.615C24.493,-17.087 13.527,-6.122 0,-6.122L-18.368,-6.122L-18.368,-34.697L-24.489,-34.697L-24.489,0L0,0C16.908,0 30.614,-13.707 30.614,-30.615C30.614,-47.522 16.908,-61.229 0,-61.229" style="fill-rule:nonzero;"/>
    </g>
</svg>
