<?xml version="1.0" encoding="UTF-8" standalone="no"?>
<!DOCTYPE svg PUBLIC "-//W3C//DTD SVG 1.1//EN" "http://www.w3.org/Graphics/SVG/1.1/DTD/svg11.dtd"><svg width="100%"
  height="100%" viewBox="0 0 500 150" version="1.1" xmlns="http://www.w3.org/2000/svg"
  xmlns:xlink="http://www.w3.org/1999/xlink" xml:space="preserve"
  style="fill-rule:evenodd;clip-rule:evenodd;stroke-linejoin:round;stroke-miterlimit:2;">
  <rect id="Artboard1" x="0" y="0" width="500" height="150" style="fill:none;" />
  <path
    d="M479.766,38.215c0,-13.228 -10.74,-23.968 -23.968,-23.968l-73.57,-0c-13.229,-0 -23.969,10.74 -23.969,23.968l0,73.57c0,13.228 10.74,23.968 23.969,23.968l73.57,0c13.228,0 23.968,-10.74 23.968,-23.968l0,-73.57Z"
    style="fill:#677;" />
  <path
    d="M45.674,113.016l2.4,-8.16c-5.952,-0.768 -10.272,-2.784 -13.248,-6.528c12.096,-8.928 17.472,-17.472 17.472,-27.168c-0,-8.064 -3.744,-15.168 -14.208,-15.168c-11.616,-0 -17.856,8.736 -17.856,24.576c-0,19.584 9.408,30.336 25.44,32.448Zm-15.648,-32.928c-0,-10.176 2.496,-15.84 7.104,-15.84c3.648,-0 5.376,3.456 5.376,8.352c-0,6.912 -3.456,12.672 -11.232,18.624c-0.864,-3.168 -1.248,-6.816 -1.248,-11.136Z"
    style="fill-rule:nonzero;" />
  <path d="M68.426,111.864l-0,-76.8l-7.2,-0l-2.208,29.568l-0,47.232l9.408,-0Z" style="fill-rule:nonzero;" />
  <path
    d="M100.586,113.016l2.4,-8.16c-5.952,-0.768 -10.272,-2.784 -13.248,-6.528c12.096,-8.928 17.472,-17.472 17.472,-27.168c-0,-8.064 -3.744,-15.168 -14.208,-15.168c-11.616,-0 -17.856,8.736 -17.856,24.576c-0,19.584 9.408,30.336 25.44,32.448Zm-15.648,-32.928c-0,-10.176 2.496,-15.84 7.104,-15.84c3.648,-0 5.376,3.456 5.376,8.352c-0,6.912 -3.456,12.672 -11.232,18.624c-0.864,-3.168 -1.248,-6.816 -1.248,-11.136Z"
    style="fill-rule:nonzero;" />
  <path
    d="M113.93,111.864l9.408,-0l-0,-46.272c1.344,-0.96 2.976,-1.344 4.896,-1.344c5.664,-0 7.776,3.552 7.776,12.48l-0,35.136l9.408,-0l-0,-46.272c1.344,-0.96 2.976,-1.344 4.896,-1.344c5.664,-0 7.776,3.552 7.776,12.48l-0,35.136l9.408,-0l-0,-37.344c-0,-12.288 -5.088,-18.528 -13.344,-18.528c-5.376,-0 -9.024,2.592 -10.656,6.432l-0.48,-0c-2.304,-4.224 -6.048,-6.432 -10.944,-6.432c-5.376,-0 -8.064,2.592 -9.024,6.432l-0.48,-0l-1.152,-5.28l-7.488,-0l-0,54.72Z"
    style="fill-rule:nonzero;" />
  <path
    d="M199.658,113.016l2.4,-8.16c-5.952,-0.768 -10.272,-2.784 -13.248,-6.528c12.096,-8.928 17.472,-17.472 17.472,-27.168c-0,-8.064 -3.744,-15.168 -14.208,-15.168c-11.616,-0 -17.856,8.736 -17.856,24.576c-0,19.584 9.408,30.336 25.44,32.448Zm-15.648,-32.928c-0,-10.176 2.496,-15.84 7.104,-15.84c3.648,-0 5.376,3.456 5.376,8.352c-0,6.912 -3.456,12.672 -11.232,18.624c-0.864,-3.168 -1.248,-6.816 -1.248,-11.136Z"
    style="fill-rule:nonzero;" />
  <path
    d="M244.49,111.864l-0,-37.344c-0,-12.288 -5.088,-18.528 -13.344,-18.528c-5.376,-0 -8.064,2.592 -9.024,6.432l-0.48,-0l-1.152,-5.28l-7.488,-0l-0,54.72l9.408,-0l-0,-46.272c1.344,-0.96 2.976,-1.344 4.896,-1.344c5.664,-0 7.776,3.552 7.776,12.48l-0,35.136l9.408,-0Z"
    style="fill-rule:nonzero;" />
  <path
    d="M268.298,113.016l3.456,-7.872c-5.664,-1.536 -8.448,-4.128 -8.448,-10.176l-0,-30.144l8.928,-0l0.576,-6.72l-0.576,-0.96l-8.928,-0l-0,-10.944l-7.2,-0l-1.344,10.944l-5.376,-0l-0.576,6.72l0.384,0.96l4.704,-0l-0,31.008c-0,7.2 3.456,14.688 14.4,17.184Z"
    style="fill-rule:nonzero;" />
  <path
    d="M294.698,113.016c3.84,-0 8.352,-0.672 12.288,-2.208l-0,-33.12c-0,-12 -8.256,-20.64 -24.288,-22.656l-2.4,8.352c7.296,0.864 12,3.072 14.688,6.432c-13.152,9.216 -18.816,17.856 -18.816,26.88c-0,9.216 6.048,16.32 18.528,16.32Zm-8.736,-17.376c-0,-6.432 3.648,-12.288 11.616,-18.24l-0,27.264c-0.672,0.096 -1.344,0.096 -2.016,0.096c-6.816,-0 -9.6,-3.456 -9.6,-9.12Z"
    style="fill-rule:nonzero;" />
  <path
    d="M314.666,111.864l9.408,-0l-0,-23.52c-0,-11.904 4.8,-20.256 17.088,-24l-2.4,-8.352c-9.12,2.4 -14.496,7.776 -15.648,15.36l-0.48,-0l-0.768,-14.208l-7.2,-0l-0,54.72Z"
    style="fill-rule:nonzero;" />
  <g>
    <path
      d="M416.805,57.144l-0,47.424c-0.864,0.096 -1.824,0.192 -2.784,0.192c-6.816,-0 -9.888,-3.264 -9.888,-13.728l-0,-33.888l-9.408,-0l-0,35.04c-0,13.248 5.952,20.832 17.472,20.832c4.8,-0 9.312,-1.248 14.016,-3.36l-0,-52.512l-9.408,-0Z"
      style="fill:#fff;fill-rule:nonzero;" />
    <path
      d="M433.893,111.864l9.408,-0l-0,-54.72l-8.544,-0l-0.864,10.944l-0,43.776Zm-0,-69.024l0.864,5.472l8.544,-0l-0,-11.328l-9.408,-0l-0,5.856Z"
      style="fill:#fff;fill-rule:nonzero;" />
  </g>
</svg>